"서비스구분","서비스ID","대분류명","소분류명","서비스상태","서비스명","결제방법","장소명","서비스대상","바로가기URL","장소X좌표","장소Y좌표","서비스개시시작일시","서비스개시종료일시","접수시작일시","접수종료일시","지역명"
"자체","S111028142616205684","교육","자연/과학","접수중","[강서습지] 솟대만들기 (토요일)","무료","강서한강공원>강서습지생태공원","제한없음","http://yeyak.seoul.go.kr/reservation/view.web?rsvsvcid=S111028142616205684","","","2017-04-12 00:00:00.0","2020-12-31 00:00:00.0","2017-04-12 00:00:00.0","2020-12-31 00:00:00.0","강서구"
"자체","S120828133802443346","교육","자연/과학","접수중","[강서습지] 자연물 목걸이 만들기(토요일) ","무료","강서한강공원>강서습지생태공원","유아","http://yeyak.seoul.go.kr/reservation/view.web?rsvsvcid=S120828133802443346","","","2017-04-12 00:00:00.0","2020-12-31 00:00:00.0","2017-04-12 00:00:00.0","2020-12-31 00:00:00.0","강서구"
"자체","S121227144925511133","교육","자연/과학","접수중","[강서습지] 부채꾸미기(수요일)","무료","강서한강공원>강서습지생태공원","유아","http://yeyak.seoul.go.kr/reservation/view.web?rsvsvcid=S121227144925511133","","","2018-06-20 00:00:00.0","2020-07-31 00:00:00.0","2018-06-20 00:00:00.0","2020-07-31 00:00:00.0","강서구"
"자체","S121227145819305410","교육","자연/과학","접수중","[강서습지] 짚풀이야기(일요일)","무료","강서한강공원>강서습지생태공원","제한없음","http://yeyak.seoul.go.kr/reservation/view.web?rsvsvcid=S121227145819305410","","","2018-04-01 00:00:00.0","2020-12-31 00:00:00.0","2018-04-25 00:00:00.0","2020-12-31 00:00:00.0","강서구"
"자체","S130426134653670898","교육","자연/과학","접수중","[강서습지] 손수건에 봄풀꽃 찍기 (목요일)","무료","강서한강공원>강서습지생태공원","유아","http://yeyak.seoul.go.kr/reservation/view.web?rsvsvcid=S130426134653670898","","","2017-04-27 00:00:00.0","2020-12-31 00:00:00.0","2017-04-27 00:00:00.0","2020-12-31 00:00:00.0","강서구"
"자체","S191015143832182602","교육","체험/견학","접수중","[식물원투어] 전문 해설가와 함께하는 주제정원 투어 (2020년6월/화~금)","무료","서울식물원","제한없음","http://yeyak.seoul.go.kr/reservation/view.web?rsvsvcid=S191015143832182602","37.5722453074","126.8328416973","2020-05-22 00:00:00.0","2020-06-30 00:00:00.0","2020-05-22 10:00:00.0","2020-06-27 17:00:00.0","강서구"
"자체","S200203084413033750","교육","자연/과학","접수중","강서습지생태공원 유아생태교실","무료","강서한강공원>강서습지생태공원>강서습지생태공원안내센터","제한없음","http://yeyak.seoul.go.kr/reservation/view.web?rsvsvcid=S200203084413033750","37.586039665497296","126.81714580273987","2020-02-03 00:00:00.0","2020-11-30 00:00:00.0","2020-02-03 00:00:00.0","2020-11-27 00:00:00.0","강서구"
"자체","S200220150542111694","교육","체험/견학","예약일시중지","[식물원투어] 2020년 단체 투어 사전 예약 (4~6월/9~11월)","무료","서울식물원","성인(10인이상단체)어린이","http://yeyak.seoul.go.kr/reservation/view.web?rsvsvcid=S200220150542111694","37.5722453074","126.8328416973","2020-02-24 00:00:00.0","2020-11-30 00:00:00.0","2020-02-24 14:00:00.0","2020-11-28 23:59:00.0","강서구"
"자체","S200318190401258426","교육","도시농업","예약일시중지","[식물 및 원예 전문과정] 식물분류 및 식별 (2020년 4.8.~6.17. / 10회 연속과정) ","유료","서울식물원","성인","http://yeyak.seoul.go.kr/reservation/view.web?rsvsvcid=S200318190401258426","37.5722453074","126.8328416973","2020-03-20 00:00:00.0","2020-06-17 00:00:00.0","2020-04-01 14:00:00.0","2020-04-07 17:00:00.0","강서구"
"자체","S200319110518519490","교육","도시농업","예약일시중지","[식물 및 원예 전문과정] 수목생리의 이해와 병충해 (2020년 6.9.~8.11. / 10회 연속과정) ","유료","서울식물원","성인","http://yeyak.seoul.go.kr/reservation/view.web?rsvsvcid=S200319110518519490","37.5722453074","126.8328416973","2020-05-20 00:00:00.0","2020-08-11 00:00:00.0","2020-05-21 14:00:00.0","2020-06-08 16:00:00.0","강서구"
"자체","S200319113358473476","교육","도시농업","예약일시중지","[식물 및 원예 전문과정] 실내정원 의 이해 (2020년 6. 11.~7. 16. / 6회 연속과정) ","유료","서울식물원>숲문화학교","성인","http://yeyak.seoul.go.kr/reservation/view.web?rsvsvcid=S200319113358473476","37.56523915213275","126.8328267928821","2020-05-21 00:00:00.0","2020-07-16 00:00:00.0","2020-05-21 14:00:00.0","2020-06-10 17:00:00.0","강서구"
"자체","S200319135109078402","교육","도시농업","예약일시중지","[식물 및 원예 전문과정] 정원식물의 이용과 관리/ 잔디 (2020년 6. 5 26. / 2회 연속과정) ","유료","서울식물원>숲문화학교","성인","http://yeyak.seoul.go.kr/reservation/view.web?rsvsvcid=S200319135109078402","37.56523915213275","126.8328267928821","2020-05-20 00:00:00.0","2020-06-26 00:00:00.0","2020-05-20 14:00:00.0","2020-06-04 17:00:00.0","강서구"
"자체","S200319140151133736","교육","도시농업","예약일시중지","[식물 및 원예 전문과정] 도심속 텃밭 만들기 (2020년 6. 9.~6. 30. / 4회 연속과정) ","유료","서울식물원>숲문화학교","성인","http://yeyak.seoul.go.kr/reservation/view.web?rsvsvcid=S200319140151133736","37.56523915213275","126.8328267928821","2020-05-21 00:00:00.0","2020-06-30 00:00:00.0","2020-05-21 14:00:00.0","2020-06-08 17:00:00.0","강서구"
"자체","S200323111548228865","교육","기타","예약일시중지","[식물문화센터] 정원과 표현기법(2020년 6.9~8.11. / 10회 연속과정)","유료","서울식물원","성인","http://yeyak.seoul.go.kr/reservation/view.web?rsvsvcid=S200323111548228865","37.5722453074","126.8328416973","2020-05-20 00:00:00.0","2020-08-11 00:00:00.0","2020-05-20 14:00:00.0","2020-06-10 17:00:00.0","강서구"
"자체","S200323113307063035","교육","도시농업","예약일시중지","[식물문화센터] 사진으로 배우는 식물도감 / 초본 (2020년 4. 10 ~ 2020. 7. 24./ 8회 연속과정) ","무료","서울식물원","성인","http://yeyak.seoul.go.kr/reservation/view.web?rsvsvcid=S200323113307063035","37.5722453074","126.8328416973","2020-03-25 00:00:00.0","2020-07-24 00:00:00.0","2020-04-01 14:00:00.0","2020-04-09 17:00:00.0","강서구"
"자체","S200323115145153528","교육","도시농업","예약일시중지","[식물 및 원예 전문과정] 사계절 정원관리 (2020년 6. 11.~7. 30. / 8회 연속과정) ","유료","서울식물원","성인","http://yeyak.seoul.go.kr/reservation/view.web?rsvsvcid=S200323115145153528","37.5722453074","126.8328416973","2020-05-20 00:00:00.0","2020-07-30 00:00:00.0","2020-05-20 14:00:00.0","2020-06-10 17:00:00.0","강서구"
"자체","S200323132301961600","교육","건강/스포츠","접수종료","[숲문화학교] 요가 인더 가든 (2020년 6월 / 수금 오전)","유료","서울식물원>숲문화학교","성인","http://yeyak.seoul.go.kr/reservation/view.web?rsvsvcid=S200323132301961600","37.56523915213275","126.8328267928821","2020-05-20 00:00:00.0","2020-06-26 00:00:00.0","2020-05-20 14:00:00.0","2020-06-02 17:00:00.0","강서구"
"자체","S200323133106082001","교육","자연/과학","예약일시중지","[숲문화학교] 아빠와 함께하는 식물원 산책 (2020년 6월 / 토요일)","유료","서울식물원>숲문화학교","유아(만5세이상)어린이","http://yeyak.seoul.go.kr/reservation/view.web?rsvsvcid=S200323133106082001","37.56523915213275","126.8328267928821","2020-05-21 00:00:00.0","2020-06-27 00:00:00.0","2020-05-21 14:00:00.0","2020-06-26 17:00:00.0","강서구"
"자체","S200323133938719780","교육","체험/견학","예약일시중지","[숲문화학교] 가족과 함께하는 식물원 산책 (2020년 6월/일요일)","유료","서울식물원>숲문화학교","유아(만4세이상)어린이","http://yeyak.seoul.go.kr/reservation/view.web?rsvsvcid=S200323133938719780","37.56523915213275","126.8328267928821","2020-05-21 00:00:00.0","2020-06-28 00:00:00.0","2020-05-21 14:00:00.0","2020-06-27 17:00:00.0","강서구"
"자체","S200323142134356541","교육","취미","예약일시중지","[식물문화센터]  세로토닌 활성화 '보타닉 손뜨게 ' (2020년 6월 / 3회 연속과정)","유료","서울식물원","성인","http://yeyak.seoul.go.kr/reservation/view.web?rsvsvcid=S200323142134356541","37.5722453074","126.8328416973","2020-05-21 00:00:00.0","2020-06-25 00:00:00.0","2020-05-21 14:00:00.0","2020-06-10 17:00:00.0","강서구"
"자체","S200323151625566043","교육","취미","예약일시중지","[식물문화센터]  '보타닉 규방공예 ' (2020. 67월 / 4회 연속과정)","유료","서울식물원","성인","http://yeyak.seoul.go.kr/reservation/view.web?rsvsvcid=S200323151625566043","37.5722453074","126.8328416973","2020-05-21 00:00:00.0","2020-07-23 00:00:00.0","2020-05-21 14:00:00.0","2020-06-09 17:00:00.0","강서구"
"자체","S200323152859014558","교육","미술제작","예약일시중지","[식물문화센터] 식물의 예술적 표현 '보타니컬 아트' (2020년 4. 7.~6. 16. / 10회 연속과정)","유료","서울식물원","제한없음","http://yeyak.seoul.go.kr/reservation/view.web?rsvsvcid=S200323152859014558","37.5722453074","126.8328416973","2020-03-25 00:00:00.0","2020-06-16 00:00:00.0","2020-04-01 14:00:00.0","2020-04-06 17:00:00.0","강서구"
"자체","S200324094359962095","교육","미술제작","예약일시중지","[식물문화센터] 식물 구조의 이해 와 표현 '세밀화'(2020년 6. 3.~ 8. 5. / 10회 연속과정)","유료","서울식물원","성인","http://yeyak.seoul.go.kr/reservation/view.web?rsvsvcid=S200324094359962095","37.5722453074","126.8328416973","2020-05-20 00:00:00.0","2020-08-05 00:00:00.0","2020-05-20 14:00:00.0","2020-06-02 17:00:00.0","강서구"
"자체","S200325103012462007","교육","체험/견학","예약일시중지","[어린이정원학교] 서울식물원 가족정원사 (가족/2020년6~7월/수토)","유료","서울식물원","가족(초등1~4학년 어린이와 부모님(보호자 동반 필수))","http://yeyak.seoul.go.kr/reservation/view.web?rsvsvcid=S200325103012462007","37.5722453074","126.8328416973","2020-05-25 00:00:00.0","2020-07-31 00:00:00.0","2020-05-25 15:00:00.0","2020-06-10 16:00:00.0","강서구"
"자체","S200325104720470317","교육","체험/견학","접수중","[어린이정원학교] 식물 놀이터_6월 (6~7세/단체)","무료","서울식물원","유아(6세~7세 단체)","http://yeyak.seoul.go.kr/reservation/view.web?rsvsvcid=S200325104720470317","37.5722453074","126.8328416973","2020-05-25 00:00:00.0","2020-06-30 00:00:00.0","2020-05-25 14:00:00.0","2020-06-29 16:00:00.0","강서구"
"자체","S200325110709592749","교육","체험/견학","접수중","[어린이정원학교] 가족 식물 테라피 (가족/6월/일)","유료","서울식물원","가족(초등1~4학년 어린이와 부모님(보호자 동반 필수))","http://yeyak.seoul.go.kr/reservation/view.web?rsvsvcid=S200325110709592749","37.5722453074","126.8328416973","2020-05-25 00:00:00.0","2020-06-30 00:00:00.0","2020-05-25 10:00:00.0","2020-06-27 16:00:00.0","강서구"
"자체","S200325132228644416","교육","체험/견학","접수중","[어린이정원학교] 24절기 정원 레시피 (가족/6월/일)","유료","서울식물원","가족(유아 초등학생 동반 가족)","http://yeyak.seoul.go.kr/reservation/view.web?rsvsvcid=S200325132228644416","37.5722453074","126.8328416973","2020-05-25 00:00:00.0","2020-06-30 00:00:00.0","2020-05-25 14:00:00.0","2020-06-27 16:00:00.0","강서구"
"자체","S200327132228570140","교육","도시농업","예약일시중지","[서울식물원 숲문화학교] 나도 가든디자이너 (2020년 6. 4.~8. 6. / 10회 연속과정)","유료","서울식물원>숲문화학교","성인","http://yeyak.seoul.go.kr/reservation/view.web?rsvsvcid=S200327132228570140","37.56523915213275","126.8328267928821","2020-05-20 00:00:00.0","2020-08-06 00:00:00.0","2020-05-20 14:00:00.0","2020-06-03 17:00:00.0","강서구"
"자체","S200402150740209603","교육","도시농업","접수종료","2020년 상반기 힐링농업체험학습 참가자 모집","무료","농업기술센터>힐링체험농원","유아(서울시)청소년","http://yeyak.seoul.go.kr/reservation/view.web?rsvsvcid=S200402150740209603","","","2020-04-02 00:00:00.0","2020-06-25 00:00:00.0","2020-04-07 11:00:00.0","2020-04-14 17:00:00.0","강서구"
"자체","S200520173154697162","교육","미술제작","예약일시중지","[식물문화센터] 식물의 예술적 표현 '보타니컬 아트' (2020년 6. 9.~8. 11. / 10회 연속과정)","유료","서울식물원","성인","http://yeyak.seoul.go.kr/reservation/view.web?rsvsvcid=S200520173154697162","37.5722453074","126.8328416973","2020-05-20 00:00:00.0","2020-08-11 00:00:00.0","2020-05-20 14:00:00.0","2020-06-08 17:00:00.0","강서구"
"자체","S200521105231830709","교육","체험/견학","예약일시중지","[숲문화학교/가족] 슬기로운 '식물의 생존전략' (2020. 6월)","유료","서울식물원>숲문화학교","제한없음","http://yeyak.seoul.go.kr/reservation/view.web?rsvsvcid=S200521105231830709","37.56523915213275","126.8328267928821","2020-05-21 00:00:00.0","2020-06-27 00:00:00.0","2020-05-21 14:00:00.0","2020-06-26 17:00:00.0","강서구"
"자체","S200521113015251019","교육","도시농업","예약일시중지","[식물 및 원예 전문과정] 정원식물의 이용과 관리/ 장미 (2020년 6. 12 19. / 2회 연속과정) ","무료","서울식물원>숲문화학교","성인","http://yeyak.seoul.go.kr/reservation/view.web?rsvsvcid=S200521113015251019","37.56523915213275","126.8328267928821","2020-05-21 00:00:00.0","2020-06-20 00:00:00.0","2020-05-21 14:00:00.0","2020-06-12 17:30:00.0","강서구"
"자체","S200521145329597121","교육","도시농업","예약일시중지","[숲문화학교] 미니정원 만들기/ 다육식물(2020년 6월 / 일요일)","유료","서울식물원>숲문화학교","제한없음","http://yeyak.seoul.go.kr/reservation/view.web?rsvsvcid=S200521145329597121","37.56523915213275","126.8328267928821","2020-05-21 00:00:00.0","2020-06-28 00:00:00.0","2020-05-21 14:00:00.0","2020-06-27 17:00:00.0","강서구"
"자체","S200521181524136074","교육","체험/견학","접수종료","[어린이정원학교/온라인교육] 열두달 가드닝 (6월)","유료","서울식물원","어린이(1~6학년)","http://yeyak.seoul.go.kr/reservation/view.web?rsvsvcid=S200521181524136074","37.5722453074","126.8328416973","2020-05-21 00:00:00.0","2020-06-30 00:00:00.0","2020-05-21 18:00:00.0","2020-06-02 13:00:00.0","강서구"
"자체","S200521191601958970","교육","체험/견학","접수종료","[어린이정원학교/온라인교육] 어린이 아틀리에(6월)","유료","서울식물원","유아(5~7세)","http://yeyak.seoul.go.kr/reservation/view.web?rsvsvcid=S200521191601958970","37.5722453074","126.8328416973","2020-05-21 00:00:00.0","2020-06-30 00:00:00.0","2020-05-21 19:00:00.0","2020-06-02 13:00:00.0","강서구"
"자체","S200525152841274633","교육","체험/견학","접수중","[어린이정원학교] 열두달 가드닝(6월/일/현장교육)","유료","서울식물원","어린이(1~6학년)","http://yeyak.seoul.go.kr/reservation/view.web?rsvsvcid=S200525152841274633","37.5722453074","126.8328416973","2020-05-25 00:00:00.0","2020-06-30 00:00:00.0","2020-05-25 10:00:00.0","2020-06-20 16:00:00.0","강서구"
"자체","S200526150800417872","교육","체험/견학","접수중","[서울식물원/어린이정원학교] 키친가든 수확물 나누기 (6월/토)","유료","서울식물원","가족(어린이동반가족)","http://yeyak.seoul.go.kr/reservation/view.web?rsvsvcid=S200526150800417872","37.5722453074","126.8328416973","2020-05-26 00:00:00.0","2020-06-30 00:00:00.0","2020-05-26 16:00:00.0","2020-06-19 13:00:00.0","강서구"
"자체","S200527124436453231","교육","자연/과학","접수중","강서습지의 새(강서습지)","무료","강서한강공원>강서습지생태공원>강서습지생태공원안내센터","제한없음","http://yeyak.seoul.go.kr/reservation/view.web?rsvsvcid=S200527124436453231","37.586039665497296","126.81714580273987","2020-05-27 00:00:00.0","2020-12-31 00:00:00.0","2020-05-27 00:00:00.0","2020-12-31 00:00:00.0","강서구"
"자체","S200603162332128980","교육","체험/견학","접수중","[어린이정원학교] 서울식물원 가족정원사(6월/수토/1회차)","유료","서울식물원","가족(초등1~4학년 어린이와 부모님(보호자 동반 필수))","http://yeyak.seoul.go.kr/reservation/view.web?rsvsvcid=S200603162332128980","37.5722453074","126.8328416973","2020-06-03 00:00:00.0","2020-06-30 00:00:00.0","2020-06-03 15:00:00.0","2020-06-23 13:00:00.0","강서구"