"서비스구분","서비스ID","대분류명","소분류명","서비스상태","서비스명","결제방법","장소명","서비스대상","바로가기URL","장소X좌표","장소Y좌표","서비스개시시작일시","서비스개시종료일시","접수시작일시","접수종료일시","지역명"
"자체","S190828161834937804","교육","교양","접수종료","(주말)서울생활사박물관 법정체험실 즐거운 연극교실 ","무료","서울생활사박물관>서울생활사박물관","어린이","http://yeyak.seoul.go.kr/reservation/view.web?rsvsvcid=S190828161834937804","37.620174004053766","127.07693846115158","2019-10-01 00:00:00.0","2020-11-08 00:00:00.0","2019-11-05 09:00:00.0","2019-11-08 18:00:00.0","노원구"
"자체","S191205101717677501","교육","체험/견학","예약일시중지","2020년 불암산나비정원 평일 단체관람 예약","무료","불암산나비정원","제한없음(10인 이상)","http://yeyak.seoul.go.kr/reservation/view.web?rsvsvcid=S191205101717677501","37.65547933003441","127.08063300621032","2019-12-01 00:00:00.0","2020-12-31 00:00:00.0","2019-12-01 12:00:00.0","2020-12-31 00:00:00.0","노원구"
"자체","S200209173334446099","교육","자연/과학","예약일시중지","[특별기획강연] 달작한 사이언스","유료","서울시립과학관","제한없음","http://yeyak.seoul.go.kr/reservation/view.web?rsvsvcid=S200209173334446099","37.6419955555","127.0774368397","2020-04-23 00:00:00.0","2020-10-29 00:00:00.0","2020-03-10 09:00:00.0","2020-10-29 17:00:00.0","노원구"
"자체","S200227180724849119","교육","자연/과학","접수중","(학교/단체) 과학관이살아있다_DNR","유료","서울시립과학관","청소년","http://yeyak.seoul.go.kr/reservation/view.web?rsvsvcid=S200227180724849119","37.6419955555","127.0774368397","2020-04-02 00:00:00.0","2020-12-11 00:00:00.0","2020-03-02 09:00:00.0","2020-11-27 09:00:00.0","노원구"
"자체","S200227185206443773","교육","자연/과학","접수중","(학교/단체) 과학테마교실","유료","서울시립과학관","청소년","http://yeyak.seoul.go.kr/reservation/view.web?rsvsvcid=S200227185206443773","37.6419955555","127.0774368397","2020-04-01 00:00:00.0","2020-12-11 00:00:00.0","2020-03-02 09:00:00.0","2020-11-27 09:00:00.0","노원구"
"자체","S200228114125666458","교육","자연/과학","접수중","(학교/단체) 고교과학탐구","유료","서울시립과학관","청소년(고등학생)","http://yeyak.seoul.go.kr/reservation/view.web?rsvsvcid=S200228114125666458","37.6419955555","127.0774368397","2020-04-02 00:00:00.0","2020-11-28 00:00:00.0","2020-03-02 09:00:00.0","2020-11-14 09:00:00.0","노원구"
"자체","S200313102154176834","교육","체험/견학","접수종료","2020년 무브무브 나의 생활사(초등학교 3~4학년 단체)","무료","서울생활사박물관","어린이","http://yeyak.seoul.go.kr/reservation/view.web?rsvsvcid=S200313102154176834","37.620174004053766","127.07693846115158","2020-03-13 00:00:00.0","2020-11-25 00:00:00.0","2020-03-19 10:00:00.0","2020-04-08 17:00:00.0","노원구"
"자체","S200313130811206764","교육","체험/견학","접수종료","2020년 조각조각 이야기 엮기(초등학교 저고학년 단체)","무료","서울생활사박물관","어린이","http://yeyak.seoul.go.kr/reservation/view.web?rsvsvcid=S200313130811206764","37.620174004053766","127.07693846115158","2020-03-13 00:00:00.0","2020-11-24 00:00:00.0","2020-03-19 10:00:00.0","2020-04-08 17:00:00.0","노원구"
"자체","S200313142147142006","교육","자연/과학","예약일시중지","(토요강연) 2020년 토요과학강연 [6월]","무료","서울시립과학관","제한없음(중학생이상권장)","http://yeyak.seoul.go.kr/reservation/view.web?rsvsvcid=S200313142147142006","37.6419955555","127.0774368397","2020-06-13 00:00:00.0","2020-06-27 00:00:00.0","2020-03-15 09:00:00.0","2020-06-27 17:00:00.0","노원구"
"자체","S200508095841603714","교육","체험/견학","접수종료","2020년 변장나들이(유치원 및 어린이집 단체)","무료","서울생활사박물관","유아","http://yeyak.seoul.go.kr/reservation/view.web?rsvsvcid=S200508095841603714","37.620174004053766","127.07693846115158","2020-05-08 00:00:00.0","2020-09-24 00:00:00.0","2020-05-08 10:00:00.0","2020-05-22 17:00:00.0","노원구"
"자체","S200513103830040439","교육","체험/견학","접수종료","(주말)2020년 가족 생활사 공작소(초등 어린이 포함 가족)","무료","서울생활사박물관","가족(초등학생 어린이를 포함한 가족)","http://yeyak.seoul.go.kr/reservation/view.web?rsvsvcid=S200513103830040439","37.620174004053766","127.07693846115158","2020-05-13 00:00:00.0","2020-06-20 00:00:00.0","2020-05-18 10:00:00.0","2020-05-29 10:00:00.0","노원구"