"연번","시설명","주소","전화번호","팩스"
"1","강북문화정보도서관","강북구 오현로 145 (번동)","02-944-3100","02-944-3139  "
"2","강북청소년문화도서관","강북구 삼양로54길 68 (미아동)","02-944-3140","02-944-3149  "
"3","솔샘문화정보도서관","강북구 솔샘로 177(미아동)","02-944-3150","02-944-3159"
"4","송중문화정보도서관","도봉로20나길6(미아동)","02-944-3160","02-9443169"
"5","수유문화정보도서관","강북구 삼양로 299 (수유동)","02-944-3170","02-944-3179"
"6","미아문화정보도서관","강북구 솔매로49길 14 (미아동)","02-944-3180","02-944-3189"